<?xml version="1.0" encoding="UTF-8" standalone="no"?>
<svg
   xmlns:dc="http://purl.org/dc/elements/1.1/"
   xmlns:cc="http://creativecommons.org/ns#"
   xmlns:rdf="http://www.w3.org/1999/02/22-rdf-syntax-ns#"
   xmlns:svg="http://www.w3.org/2000/svg"
   xmlns="http://www.w3.org/2000/svg"
   xmlns:sodipodi="http://sodipodi.sourceforge.net/DTD/sodipodi-0.dtd"
   xmlns:inkscape="http://www.inkscape.org/namespaces/inkscape"
   width="762"
   height="125"
   id="svg2"
   version="1.0"
   inkscape:version="0.48.5 r10040"
   sodipodi:docname="X86_Extended_Floating_Point_Format_ru.pdf">
  <metadata
     id="metadata3439">
    <rdf:RDF>
      <cc:Work
         rdf:about="">
        <dc:format>image/svg+xml</dc:format>
        <dc:type
           rdf:resource="http://purl.org/dc/dcmitype/StillImage" />
        <dc:title></dc:title>
      </cc:Work>
    </rdf:RDF>
  </metadata>
  <defs
     id="defs3437" />
  <sodipodi:namedview
     pagecolor="#ffffff"
     bordercolor="#666666"
     borderopacity="1"
     objecttolerance="10"
     gridtolerance="10"
     guidetolerance="10"
     inkscape:pageopacity="0"
     inkscape:pageshadow="2"
     inkscape:window-width="1920"
     inkscape:window-height="1034"
     id="namedview3435"
     showgrid="false"
     inkscape:zoom="1.7007874"
     inkscape:cx="389.74889"
     inkscape:cy="10.152845"
     inkscape:window-x="-3"
     inkscape:window-y="-3"
     inkscape:window-maximized="1"
     inkscape:current-layer="svg2" />
  <style
     id="style3219">
    rect.sign {
      fill:#d5ffff;
      fill-opacity:1;
      stroke:#000000;
      stroke-linejoin:bevel;
      stroke-opacity:1
    }
    rect.exp {
      fill:#a4ffb4;
      fill-opacity:1;
      stroke:#000000;
      stroke-linejoin:bevel;
      stroke-opacity:1
    }
    rect.frac {
      fill:#ffb2b4;
      fill-opacity:1;
      stroke:#000000;
      stroke-linejoin:bevel;
      stroke-opacity:1
    }
	text.text {
      font-size:14px;
      font-style:normal;
      font-weight:normal;
      fill:#000000;
      fill-opacity:1;
      stroke:none;
      stroke-width:1px;
      stroke-linecap:butt;
      stroke-linejoin:miter;
      stroke-opacity:1;
      font-family:sans
    }
    path.path {
      fill:#000000;
      fill-opacity:0.25098041;
      stroke:#000000;
      stroke-width:1;
      stroke-linejoin:bevel;
      stroke-miterlimit:4;
      stroke-dasharray:none;
      stroke-opacity:1
    }
  </style>
  <rect
     style="fill:#d5ffff;fill-opacity:1;stroke:#000000;stroke-linejoin:bevel;stroke-opacity:1"
     id="rect3223"
     y="54"
     x="22"
     height="28"
     width="9"
     class="sign" />
  <rect
     style="fill:#a4ffb4;fill-opacity:1;stroke:#000000;stroke-linejoin:bevel;stroke-opacity:1"
     id="rect3225"
     y="54"
     x="31"
     height="28"
     width="9"
     class="exp" />
  <rect
     style="fill:#a4ffb4;fill-opacity:1;stroke:#000000;stroke-linejoin:bevel;stroke-opacity:1"
     id="rect3227"
     y="54"
     x="40"
     height="28"
     width="9"
     class="exp" />
  <rect
     style="fill:#a4ffb4;fill-opacity:1;stroke:#000000;stroke-linejoin:bevel;stroke-opacity:1"
     id="rect3229"
     y="54"
     x="49"
     height="28"
     width="9"
     class="exp" />
  <rect
     style="fill:#a4ffb4;fill-opacity:1;stroke:#000000;stroke-linejoin:bevel;stroke-opacity:1"
     id="rect3231"
     y="54"
     x="58"
     height="28"
     width="9"
     class="exp" />
  <rect
     style="fill:#a4ffb4;fill-opacity:1;stroke:#000000;stroke-linejoin:bevel;stroke-opacity:1"
     id="rect3233"
     y="54"
     x="67"
     height="28"
     width="9"
     class="exp" />
  <rect
     style="fill:#a4ffb4;fill-opacity:1;stroke:#000000;stroke-linejoin:bevel;stroke-opacity:1"
     id="rect3235"
     y="54"
     x="76"
     height="28"
     width="9"
     class="exp" />
  <rect
     style="fill:#a4ffb4;fill-opacity:1;stroke:#000000;stroke-linejoin:bevel;stroke-opacity:1"
     id="rect3237"
     y="54"
     x="85"
     height="28"
     width="9"
     class="exp" />
  <rect
     style="fill:#a4ffb4;fill-opacity:1;stroke:#000000;stroke-linejoin:bevel;stroke-opacity:1"
     id="rect3239"
     y="54"
     x="94"
     height="28"
     width="9"
     class="exp" />
  <rect
     style="fill:#a4ffb4;fill-opacity:1;stroke:#000000;stroke-linejoin:bevel;stroke-opacity:1"
     id="rect3241"
     y="54"
     x="103"
     height="28"
     width="9"
     class="exp" />
  <rect
     style="fill:#a4ffb4;fill-opacity:1;stroke:#000000;stroke-linejoin:bevel;stroke-opacity:1"
     id="rect3243"
     y="54"
     x="112"
     height="28"
     width="9"
     class="exp" />
  <rect
     style="fill:#a4ffb4;fill-opacity:1;stroke:#000000;stroke-linejoin:bevel;stroke-opacity:1"
     id="rect3245"
     y="54"
     x="121"
     height="28"
     width="9"
     class="exp" />
  <rect
     style="fill:#ffd5d5;fill-opacity:1;stroke:#000000;stroke-linejoin:bevel;stroke-opacity:1"
     id="rect3247"
     y="54"
     x="130"
     height="28"
     width="9"
     class="frac" />
  <rect
     style="fill:#ffb2b4;fill-opacity:1;stroke:#000000;stroke-linejoin:bevel;stroke-opacity:1"
     id="rect3249"
     y="54"
     x="139"
     height="28"
     width="9"
     class="frac" />
  <rect
     style="fill:#ffb2b4;fill-opacity:1;stroke:#000000;stroke-linejoin:bevel;stroke-opacity:1"
     id="rect3251"
     y="54"
     x="148"
     height="28"
     width="9"
     class="frac" />
  <rect
     style="fill:#ffb2b4;fill-opacity:1;stroke:#000000;stroke-linejoin:bevel;stroke-opacity:1"
     id="rect3253"
     y="54"
     x="157"
     height="28"
     width="9"
     class="frac" />
  <rect
     style="fill:#ffb2b4;fill-opacity:1;stroke:#000000;stroke-linejoin:bevel;stroke-opacity:1"
     id="rect3255"
     y="54"
     x="166"
     height="28"
     width="9"
     class="frac" />
  <rect
     style="fill:#ffb2b4;fill-opacity:1;stroke:#000000;stroke-linejoin:bevel;stroke-opacity:1"
     id="rect3257"
     y="54"
     x="175"
     height="28"
     width="9"
     class="frac" />
  <rect
     style="fill:#ffb2b4;fill-opacity:1;stroke:#000000;stroke-linejoin:bevel;stroke-opacity:1"
     id="rect3259"
     y="54"
     x="184"
     height="28"
     width="9"
     class="frac" />
  <rect
     style="fill:#ffb2b4;fill-opacity:1;stroke:#000000;stroke-linejoin:bevel;stroke-opacity:1"
     id="rect3261"
     y="54"
     x="193"
     height="28"
     width="9"
     class="frac" />
  <rect
     style="fill:#ffb2b4;fill-opacity:1;stroke:#000000;stroke-linejoin:bevel;stroke-opacity:1"
     id="rect3263"
     y="54"
     x="202"
     height="28"
     width="9"
     class="frac" />
  <rect
     style="fill:#ffb2b4;fill-opacity:1;stroke:#000000;stroke-linejoin:bevel;stroke-opacity:1"
     id="rect3265"
     y="54"
     x="211"
     height="28"
     width="9"
     class="frac" />
  <rect
     style="fill:#ffb2b4;fill-opacity:1;stroke:#000000;stroke-linejoin:bevel;stroke-opacity:1"
     id="rect3267"
     y="54"
     x="220"
     height="28"
     width="9"
     class="frac" />
  <rect
     style="fill:#ffb2b4;fill-opacity:1;stroke:#000000;stroke-linejoin:bevel;stroke-opacity:1"
     id="rect3269"
     y="54"
     x="229"
     height="28"
     width="9"
     class="frac" />
  <rect
     style="fill:#ffb2b4;fill-opacity:1;stroke:#000000;stroke-linejoin:bevel;stroke-opacity:1"
     id="rect3271"
     y="54"
     x="238"
     height="28"
     width="9"
     class="frac" />
  <rect
     style="fill:#ffb2b4;fill-opacity:1;stroke:#000000;stroke-linejoin:bevel;stroke-opacity:1"
     id="rect3273"
     y="54"
     x="247"
     height="28"
     width="9"
     class="frac" />
  <rect
     style="fill:#ffb2b4;fill-opacity:1;stroke:#000000;stroke-linejoin:bevel;stroke-opacity:1"
     id="rect3275"
     y="54"
     x="256"
     height="28"
     width="9"
     class="frac" />
  <rect
     style="fill:#ffb2b4;fill-opacity:1;stroke:#000000;stroke-linejoin:bevel;stroke-opacity:1"
     id="rect3277"
     y="54"
     x="265"
     height="28"
     width="9"
     class="frac" />
  <rect
     style="fill:#ffb2b4;fill-opacity:1;stroke:#000000;stroke-linejoin:bevel;stroke-opacity:1"
     id="rect3279"
     y="54"
     x="274"
     height="28"
     width="9"
     class="frac" />
  <rect
     style="fill:#ffb2b4;fill-opacity:1;stroke:#000000;stroke-linejoin:bevel;stroke-opacity:1"
     id="rect3281"
     y="54"
     x="283"
     height="28"
     width="9"
     class="frac" />
  <rect
     style="fill:#ffb2b4;fill-opacity:1;stroke:#000000;stroke-linejoin:bevel;stroke-opacity:1"
     id="rect3283"
     y="54"
     x="292"
     height="28"
     width="9"
     class="frac" />
  <rect
     style="fill:#ffb2b4;fill-opacity:1;stroke:#000000;stroke-linejoin:bevel;stroke-opacity:1"
     id="rect3285"
     y="54"
     x="301"
     height="28"
     width="9"
     class="frac" />
  <rect
     style="fill:#ffb2b4;fill-opacity:1;stroke:#000000;stroke-linejoin:bevel;stroke-opacity:1"
     id="rect3287"
     y="54"
     x="310"
     height="28"
     width="9"
     class="frac" />
  <rect
     style="fill:#ffb2b4;fill-opacity:1;stroke:#000000;stroke-linejoin:bevel;stroke-opacity:1"
     id="rect3289"
     y="54"
     x="319"
     height="28"
     width="9"
     class="frac" />
  <rect
     style="fill:#ffb2b4;fill-opacity:1;stroke:#000000;stroke-linejoin:bevel;stroke-opacity:1"
     id="rect3291"
     y="54"
     x="328"
     height="28"
     width="9"
     class="frac" />
  <rect
     style="fill:#ffb2b4;fill-opacity:1;stroke:#000000;stroke-linejoin:bevel;stroke-opacity:1"
     id="rect3293"
     y="54"
     x="337"
     height="28"
     width="9"
     class="frac" />
  <rect
     style="fill:#ffb2b4;fill-opacity:1;stroke:#000000;stroke-linejoin:bevel;stroke-opacity:1"
     id="rect3295"
     y="54"
     x="346"
     height="28"
     width="9"
     class="frac" />
  <rect
     style="fill:#ffb2b4;fill-opacity:1;stroke:#000000;stroke-linejoin:bevel;stroke-opacity:1"
     id="rect3297"
     y="54"
     x="355"
     height="28"
     width="9"
     class="frac" />
  <rect
     style="fill:#ffb2b4;fill-opacity:1;stroke:#000000;stroke-linejoin:bevel;stroke-opacity:1"
     id="rect3299"
     y="54"
     x="364"
     height="28"
     width="9"
     class="frac" />
  <rect
     style="fill:#ffb2b4;fill-opacity:1;stroke:#000000;stroke-linejoin:bevel;stroke-opacity:1"
     id="rect3301"
     y="54"
     x="373"
     height="28"
     width="9"
     class="frac" />
  <rect
     style="fill:#ffb2b4;fill-opacity:1;stroke:#000000;stroke-linejoin:bevel;stroke-opacity:1"
     id="rect3303"
     y="54"
     x="382"
     height="28"
     width="9"
     class="frac" />
  <rect
     style="fill:#ffb2b4;fill-opacity:1;stroke:#000000;stroke-linejoin:bevel;stroke-opacity:1"
     id="rect3305"
     y="54"
     x="391"
     height="28"
     width="9"
     class="frac" />
  <rect
     style="fill:#ffb2b4;fill-opacity:1;stroke:#000000;stroke-linejoin:bevel;stroke-opacity:1"
     id="rect3307"
     y="54"
     x="400"
     height="28"
     width="9"
     class="frac" />
  <rect
     style="fill:#ffb2b4;fill-opacity:1;stroke:#000000;stroke-linejoin:bevel;stroke-opacity:1"
     id="rect3309"
     y="54"
     x="409"
     height="28"
     width="9"
     class="frac" />
  <rect
     style="fill:#ffb2b4;fill-opacity:1;stroke:#000000;stroke-linejoin:bevel;stroke-opacity:1"
     id="rect3311"
     y="54"
     x="418"
     height="28"
     width="9"
     class="frac" />
  <rect
     style="fill:#ffb2b4;fill-opacity:1;stroke:#000000;stroke-linejoin:bevel;stroke-opacity:1"
     id="rect3313"
     y="54"
     x="427"
     height="28"
     width="9"
     class="frac" />
  <rect
     style="fill:#ffb2b4;fill-opacity:1;stroke:#000000;stroke-linejoin:bevel;stroke-opacity:1"
     id="rect3315"
     y="54"
     x="436"
     height="28"
     width="9"
     class="frac" />
  <rect
     style="fill:#ffb2b4;fill-opacity:1;stroke:#000000;stroke-linejoin:bevel;stroke-opacity:1"
     id="rect3317"
     y="54"
     x="445"
     height="28"
     width="9"
     class="frac" />
  <rect
     style="fill:#ffb2b4;fill-opacity:1;stroke:#000000;stroke-linejoin:bevel;stroke-opacity:1"
     id="rect3319"
     y="54"
     x="454"
     height="28"
     width="9"
     class="frac" />
  <rect
     style="fill:#ffb2b4;fill-opacity:1;stroke:#000000;stroke-linejoin:bevel;stroke-opacity:1"
     id="rect3321"
     y="54"
     x="463"
     height="28"
     width="9"
     class="frac" />
  <rect
     style="fill:#ffb2b4;fill-opacity:1;stroke:#000000;stroke-linejoin:bevel;stroke-opacity:1"
     id="rect3323"
     y="54"
     x="472"
     height="28"
     width="9"
     class="frac" />
  <rect
     style="fill:#ffb2b4;fill-opacity:1;stroke:#000000;stroke-linejoin:bevel;stroke-opacity:1"
     id="rect3325"
     y="54"
     x="481"
     height="28"
     width="9"
     class="frac" />
  <rect
     style="fill:#ffb2b4;fill-opacity:1;stroke:#000000;stroke-linejoin:bevel;stroke-opacity:1"
     id="rect3327"
     y="54"
     x="490"
     height="28"
     width="9"
     class="frac" />
  <rect
     style="fill:#ffb2b4;fill-opacity:1;stroke:#000000;stroke-linejoin:bevel;stroke-opacity:1"
     id="rect3329"
     y="54"
     x="499"
     height="28"
     width="9"
     class="frac" />
  <rect
     style="fill:#ffb2b4;fill-opacity:1;stroke:#000000;stroke-linejoin:bevel;stroke-opacity:1"
     id="rect3331"
     y="54"
     x="508"
     height="28"
     width="9"
     class="frac" />
  <rect
     style="fill:#ffb2b4;fill-opacity:1;stroke:#000000;stroke-linejoin:bevel;stroke-opacity:1"
     id="rect3333"
     y="54"
     x="517"
     height="28"
     width="9"
     class="frac" />
  <rect
     style="fill:#ffb2b4;fill-opacity:1;stroke:#000000;stroke-linejoin:bevel;stroke-opacity:1"
     id="rect3335"
     y="54"
     x="526"
     height="28"
     width="9"
     class="frac" />
  <rect
     style="fill:#ffb2b4;fill-opacity:1;stroke:#000000;stroke-linejoin:bevel;stroke-opacity:1"
     id="rect3337"
     y="54"
     x="535"
     height="28"
     width="9"
     class="frac" />
  <rect
     style="fill:#ffb2b4;fill-opacity:1;stroke:#000000;stroke-linejoin:bevel;stroke-opacity:1"
     id="rect3339"
     y="54"
     x="544"
     height="28"
     width="9"
     class="frac" />
  <rect
     style="fill:#ffb2b4;fill-opacity:1;stroke:#000000;stroke-linejoin:bevel;stroke-opacity:1"
     id="rect3341"
     y="54"
     x="553"
     height="28"
     width="9"
     class="frac" />
  <rect
     style="fill:#ffb2b4;fill-opacity:1;stroke:#000000;stroke-linejoin:bevel;stroke-opacity:1"
     id="rect3343"
     y="54"
     x="562"
     height="28"
     width="9"
     class="frac" />
  <rect
     style="fill:#ffb2b4;fill-opacity:1;stroke:#000000;stroke-linejoin:bevel;stroke-opacity:1"
     id="rect3345"
     y="54"
     x="571"
     height="28"
     width="9"
     class="frac" />
  <rect
     style="fill:#ffb2b4;fill-opacity:1;stroke:#000000;stroke-linejoin:bevel;stroke-opacity:1"
     id="rect3347"
     y="54"
     x="580"
     height="28"
     width="9"
     class="frac" />
  <rect
     style="fill:#ffb2b4;fill-opacity:1;stroke:#000000;stroke-linejoin:bevel;stroke-opacity:1"
     id="rect3349"
     y="54"
     x="589"
     height="28"
     width="9"
     class="frac" />
  <rect
     style="fill:#ffb2b4;fill-opacity:1;stroke:#000000;stroke-linejoin:bevel;stroke-opacity:1"
     id="rect3351"
     y="54"
     x="589"
     height="28"
     width="9"
     class="frac" />
  <rect
     style="fill:#ffb2b4;fill-opacity:1;stroke:#000000;stroke-linejoin:bevel;stroke-opacity:1"
     id="rect3353"
     y="54"
     x="598"
     height="28"
     width="9"
     class="frac" />
  <rect
     style="fill:#ffb2b4;fill-opacity:1;stroke:#000000;stroke-linejoin:bevel;stroke-opacity:1"
     id="rect3355"
     y="54"
     x="607"
     height="28"
     width="9"
     class="frac" />
  <rect
     style="fill:#ffb2b4;fill-opacity:1;stroke:#000000;stroke-linejoin:bevel;stroke-opacity:1"
     id="rect3357"
     y="54"
     x="616"
     height="28"
     width="9"
     class="frac" />
  <rect
     style="fill:#ffb2b4;fill-opacity:1;stroke:#000000;stroke-linejoin:bevel;stroke-opacity:1"
     id="rect3359"
     y="54"
     x="625"
     height="28"
     width="9"
     class="frac" />
  <rect
     style="fill:#ffb2b4;fill-opacity:1;stroke:#000000;stroke-linejoin:bevel;stroke-opacity:1"
     id="rect3361"
     y="54"
     x="634"
     height="28"
     width="9"
     class="frac" />
  <rect
     style="fill:#ffb2b4;fill-opacity:1;stroke:#000000;stroke-linejoin:bevel;stroke-opacity:1"
     id="rect3363"
     y="54"
     x="643"
     height="28"
     width="9"
     class="frac" />
  <rect
     style="fill:#ffb2b4;fill-opacity:1;stroke:#000000;stroke-linejoin:bevel;stroke-opacity:1"
     id="rect3365"
     y="54"
     x="652"
     height="28"
     width="9"
     class="frac" />
  <rect
     style="fill:#ffb2b4;fill-opacity:1;stroke:#000000;stroke-linejoin:bevel;stroke-opacity:1"
     id="rect3367"
     y="54"
     x="661"
     height="28"
     width="9"
     class="frac" />
  <rect
     style="fill:#ffb2b4;fill-opacity:1;stroke:#000000;stroke-linejoin:bevel;stroke-opacity:1"
     id="rect3369"
     y="54"
     x="670"
     height="28"
     width="9"
     class="frac" />
  <rect
     style="fill:#ffb2b4;fill-opacity:1;stroke:#000000;stroke-linejoin:bevel;stroke-opacity:1"
     id="rect3371"
     y="54"
     x="679"
     height="28"
     width="9"
     class="frac" />
  <rect
     style="fill:#ffb2b4;fill-opacity:1;stroke:#000000;stroke-linejoin:bevel;stroke-opacity:1"
     id="rect3373"
     y="54"
     x="688"
     height="28"
     width="9"
     class="frac" />
  <rect
     style="fill:#ffb2b4;fill-opacity:1;stroke:#000000;stroke-linejoin:bevel;stroke-opacity:1"
     id="rect3375"
     y="54"
     x="697"
     height="28"
     width="9"
     class="frac" />
  <rect
     style="fill:#ffb2b4;fill-opacity:1;stroke:#000000;stroke-linejoin:bevel;stroke-opacity:1"
     id="rect3377"
     y="54"
     x="706"
     height="28"
     width="9"
     class="frac" />
  <rect
     style="fill:#ffb2b4;fill-opacity:1;stroke:#000000;stroke-linejoin:bevel;stroke-opacity:1"
     id="rect3379"
     y="54"
     x="715"
     height="28"
     width="9"
     class="frac" />
  <rect
     style="fill:#ffb2b4;fill-opacity:1;stroke:#000000;stroke-linejoin:bevel;stroke-opacity:1"
     id="rect3381"
     y="54"
     x="724"
     height="28"
     width="9"
     class="frac" />
  <path
     inkscape:connector-curvature="0"
     id="path3383"
     d="m 26.5,41.5 0,10"
     style="fill:none;stroke:#000000;stroke-width:1px;stroke-linecap:butt;stroke-linejoin:miter;stroke-opacity:1" />
  <path
     inkscape:connector-curvature="0"
     id="path3385"
     d="m 31,41.5 0,10"
     style="fill:none;stroke:#000000;stroke-width:1px;stroke-linecap:butt;stroke-linejoin:miter;stroke-opacity:1" />
  <path
     inkscape:connector-curvature="0"
     id="path3387"
     d="m 129.5,41.5 0,10"
     style="fill:none;stroke:#000000;stroke-width:1px;stroke-linecap:butt;stroke-linejoin:miter;stroke-opacity:1" />
  <path
     inkscape:connector-curvature="0"
     id="path3389"
     d="M 30.871268,41.5 129.5,41.5"
     style="fill:none;stroke:#000000;stroke-width:1px;stroke-linecap:butt;stroke-linejoin:miter;stroke-opacity:1" />
  <path
     inkscape:connector-curvature="0"
     id="path3391"
     d="m 139.07002,41.5 0,10"
     style="fill:none;stroke:#000000;stroke-width:1px;stroke-linecap:butt;stroke-linejoin:miter;stroke-opacity:1" />
  <path
     inkscape:connector-curvature="0"
     id="path3393"
     d="M 138.84344,41.5 733,41.5"
     style="fill:none;stroke:#000000;stroke-width:0.98779148px;stroke-linecap:butt;stroke-linejoin:miter;stroke-opacity:1" />
  <path
     inkscape:connector-curvature="0"
     id="path3395"
     d="m 733,41.5 0,10"
     style="fill:none;stroke:#000000;stroke-width:1px;stroke-linecap:butt;stroke-linejoin:miter;stroke-opacity:1" />
  <text
     style="font-size:14px;font-style:normal;font-weight:normal;fill:#000000;fill-opacity:1;stroke:none;font-family:sans"
     id="text3397"
     y="16.812664"
     x="47.264332"
     class="text"
     xml:space="preserve"><tspan
       id="tspan3399"
       style="font-size:14px;font-family:sans"
       y="16.812664"
       x="47.264332">Порядок</tspan></text>
  <text
     style="font-size:14px;font-style:normal;font-weight:normal;fill:#000000;fill-opacity:1;stroke:none;font-family:sans"
     id="text3401"
     y="34.155521"
     x="54.322437"
     class="text"
     xml:space="preserve"><tspan
       id="tspan3403"
       style="font-size:14px;font-family:sans"
       y="34.155521"
       x="54.322437">(15 бит)</tspan></text>
  <text
     style="font-size:14px;font-style:normal;font-weight:normal;fill:#000000;fill-opacity:1;stroke:none;font-family:sans"
     id="text3405"
     y="34.843887"
     x="13.918457"
     class="text"
     xml:space="preserve"><tspan
       id="tspan3407"
       style="font-size:14px"
       y="34.843887"
       x="13.918457">Знак</tspan></text>
  <text
     style="font-size:14px;font-style:normal;font-weight:normal;fill:#000000;fill-opacity:1;stroke:none;font-family:sans"
     id="text3409"
     y="15.752003"
     x="341.72983"
     class="text"
     xml:space="preserve"><tspan
       id="tspan3411"
       y="15.752003"
       x="341.72983">Дробная часть мантиссы</tspan></text>
  <text
     style="font-size:14px;font-style:normal;font-weight:normal;fill:#000000;fill-opacity:1;stroke:none;font-family:sans"
     id="text3413"
     y="33.429672"
     x="342.30746"
     class="text"
     xml:space="preserve"><tspan
       id="tspan3415"
       y="33.429672"
       x="342.30746">(63 бита)</tspan></text>
  <path
     style="fill:#000000;fill-opacity:0.25098039;stroke:#000000;stroke-width:1;stroke-linejoin:bevel;stroke-miterlimit:4;stroke-opacity:1;stroke-dasharray:none"
     inkscape:connector-curvature="0"
     id="path3417"
     d="m 30.212311,90.78769 a 3.7123106,3.7123106 0 1 1 -7.424621,0 3.7123106,3.7123106 0 1 1 7.424621,0 z"
     class="path" />
  <text
     style="font-size:14px;font-style:normal;font-weight:normal;fill:#000000;fill-opacity:1;stroke:none;font-family:sans"
     id="text3419"
     y="110.82227"
     x="18.765137"
     class="text"
     xml:space="preserve"><tspan
       id="tspan3421"
       y="110.82227"
       x="18.765137">79</tspan></text>
  <text
     style="font-size:14px;font-style:normal;font-weight:normal;fill:#000000;fill-opacity:1;stroke:none;font-family:sans"
     id="text3423"
     y="110.8291"
     x="117.78906"
     class="text"
     xml:space="preserve"><tspan
       id="tspan3425"
       y="110.8291"
       x="117.78906">64</tspan></text>
  <path
     style="fill:#000000;fill-opacity:0.25098039;stroke:#000000;stroke-width:1;stroke-linejoin:bevel;stroke-miterlimit:4;stroke-opacity:1;stroke-dasharray:none"
     inkscape:connector-curvature="0"
     id="path3427"
     d="m 129.21231,90.78769 a 3.7123106,3.7123106 0 1 1 -7.42462,0 3.7123106,3.7123106 0 1 1 7.42462,0 z"
     class="path" />
  <path
     style="fill:#000000;fill-opacity:0.25098039;stroke:#000000;stroke-width:1;stroke-linejoin:bevel;stroke-miterlimit:4;stroke-opacity:1;stroke-dasharray:none"
     inkscape:connector-curvature="0"
     id="path3429"
     d="m 732.3198,90.78769 a 3.7123106,3.7123106 0 1 1 -7.42462,0 3.7123106,3.7123106 0 1 1 7.42462,0 z"
     class="path" />
  <text
     style="font-size:14px;font-style:normal;font-weight:normal;fill:#000000;fill-opacity:1;stroke:none;font-family:sans"
     id="text3431"
     y="110.50431"
     x="726"
     class="text"
     xml:space="preserve"><tspan
       id="tspan3433"
       y="110.50431"
       x="726">0</tspan></text>
  <path
     inkscape:connector-curvature="0"
     id="path3383-1"
     d="m 134.20255,42.241898 0,10"
     style="fill:none;stroke:#000000;stroke-width:1px;stroke-linecap:butt;stroke-linejoin:miter;stroke-opacity:1" />
  <text
     xml:space="preserve"
     style="font-size:13.51807213px;font-style:normal;font-weight:normal;line-height:125%;letter-spacing:0px;word-spacing:0px;fill:#000000;fill-opacity:1;stroke:none;font-family:Sans"
     x="125.6925"
     y="17.072643"
     id="text3601"
     sodipodi:linespacing="125%"><tspan
       sodipodi:role="line"
       id="tspan3603"
       x="125.6925"
       y="17.072643">Целая часть мантиссы</tspan></text>
  <text
     xml:space="preserve"
     style="font-size:13.41952133px;font-style:normal;font-weight:normal;line-height:125%;letter-spacing:0px;word-spacing:0px;fill:#000000;fill-opacity:1;stroke:none;font-family:Sans"
     x="126.83953"
     y="34.970741"
     id="text3605"
     sodipodi:linespacing="125%"><tspan
       sodipodi:role="line"
       id="tspan3607"
       x="126.83953"
       y="34.970741">(1 бит)</tspan></text>
</svg>
